{
  "india": { 
    "maharashtra":
      { "list": [
        { "area": "Mumbai", "case": 2003, "death": 125},
        { "area": "Pune", "case": 430, "death": 25},
        { "area": "Thane", "case": 295, "death": 10},
        { "area": "Nagpur", "case": 66, "death": 10},
        { "area": "Nashik", "case": 56, "death": 8},
        { "area": "Palghar", "case": 39, "death": 20},
        { "area": "Ahmadnagar", "case": 28, "death": 7},
        { "area": "Sangli", "case": 25, "death": 8}
      ]},
    "delhi":
      {"list": [
        { "area": "South Delhi", "case": 520, "death": 35},
        { "area": "New Delhi", "case": 344, "death": 12},
        { "area": "South West Delhi", "case": 210, "death": 14},
        { "area": "North West Delhi", "case": 156, "death": 18},
        { "area": "North Delhi", "case": 120, "death": 21},
        { "area": "West Delhi", "case": 110, "death": 20},
        { "area": "North East Delhi", "case": 55, "death": 9},
        { "area": "East Delhi", "case": 25, "death": 4}
      ]},
    "punjab": {"list": [
        { "area": "Mansa", "case": 11, "death": 1},
        { "area": "Ludhiana", "case": 11, "death": 2},
        { "area": "Amritsar", "case": 11, "death": 4},
        { "area": "Hoshiarpur", "case": 7, "death": 2},
        { "area": "Patiala", "case": 6, "death": 0},
        { "area": "Moga", "case": 4, "death": 1},
        { "area": "Sangrur", "case": 3, "death": 0},
        { "area": "Rupnagar", "case": 3, "death": 0},
        { "area": "Faridkot", "case": 3, "death": 1},
        { "area": "Kapurthala", "case": 2, "death": 0},
        { "area": "Fatehgarh_sahib", "case": 2, "death": 2},
        { "area": "Barnala", "case": 2, "death": 0},
        { "area": "Sri_Muktsar_Sahib", "case": 1, "death": 1},
        { "area": "Gurdaspur", "case": 1, "death": 0}
      ]}
    },
    "world": {"list": [
      { "area": "USA", "case": 678210, "death": 34641	},
      { "area": "Spain", "case": 184948, "death": 19315 },
      { "area": "Italy", "case": 168941, "death": 22170 },
      { "area": "France", "case": 165027, "death": 17920 },
      { "area": "Germany", "case": 138221, "death": 4098 },
      { "area": "UK", "case": 103093, "death": 13729 },
      { "area": "China", "case": 82692, "death": 4632 }
  ]}
}